Twitter Mining with rtweet
…
Trending Tweets

# Show available locations to get trends
trends_available()

## # A tibble: 467 x 8
##    name       url           parentid country  woeid countryCode  code place_type
##    <chr>      <chr>            <int> <chr>    <int> <chr>       <int> <chr>     
##  1 Worldwide  http://where~        0 ""           1 <NA>           19 Supername 
##  2 Winnipeg   http://where~ 23424775 "Canada"  2972 CA              7 Town      
##  3 Ottawa     http://where~ 23424775 "Canada"  3369 CA              7 Town      
##  4 Quebec     http://where~ 23424775 "Canada"  3444 CA              7 Town      
##  5 Montreal   http://where~ 23424775 "Canada"  3534 CA              7 Town      
##  6 Toronto    http://where~ 23424775 "Canada"  4118 CA              7 Town      
##  7 Edmonton   http://where~ 23424775 "Canada"  8676 CA              7 Town      
##  8 Calgary    http://where~ 23424775 "Canada"  8775 CA              7 Town      
##  9 Vancouver  http://where~ 23424775 "Canada"  9807 CA              7 Town      
## 10 Birmingham http://where~ 23424975 "United~ 12723 GB              7 Town      
## # ... with 457 more rows

# See World wide trends twits
get_trends('Worldwide')

## # A tibble: 50 x 9
##    trend    url           promoted_content query        tweet_volume place woeid
##    <chr>    <chr>         <lgl>            <chr>               <int> <chr> <int>
##  1 Thanksg~ http://twitt~ NA               Thanksgiving      1807459 Worl~     1
##  2 #<U+C0AC><U+B791><U+B465>~ http://twitt~ NA               %23%EC%82%A~        90870 Worl~     1
##  3 #Genius~ http://twitt~ NA               %23GeniusPe~        90174 Worl~     1
##  4 #<U+307E><U+307B><U+3084>~ http://twitt~ NA               %23%E3%81%B~        37684 Worl~     1
##  5 #<U+5927><U+91CE><U+667A>~ http://twitt~ NA               %23%E5%A4%A~        18192 Worl~     1
##  6 #DiaCon~ http://twitt~ NA               %23DiaContr~        39122 Worl~     1
##  7 Ralf Ra~ http://twitt~ NA               %22Ralf+Ran~        32891 Worl~     1
##  8 Maradona http://twitt~ NA               Maradona            90106 Worl~     1
##  9 Turkey ~ http://twitt~ NA               %22Turkey+D~        43920 Worl~     1
## 10 KAI PRO~ http://twitt~ NA               %22KAI+PROL~       154467 Worl~     1
## # ... with 40 more rows, and 2 more variables: as_of <dttm>, created_at <dttm>
…
## lookup users by screen_name or user_id
users <- c("KimKardashian", "justinbieber", "taylorswift13",
           "espn", "JoelEmbiid", "cstonehoops", "KUHoops",
           "upshotnyt", "fivethirtyeight", "hadleywickham",
           "cnn", "foxnews", "msnbc", "maddow", "seanhannity",
           "potus", "epa", "hillaryclinton", "realdonaldtrump",
           "natesilver538", "ezraklein", "annecoulter")

famous_tweeters <- lookup_users(users)

## preview users data
famous_tweeters

## # A tibble: 21 x 90
##    user_id    status_id           created_at          screen_name  text   source
##    <chr>      <chr>               <dttm>              <chr>        <chr>  <chr> 
##  1 25365536   1463553234794991618 2021-11-24 17:00:57 KimKardashi~ "Our ~ Twitt~
##  2 27260086   1463661337851142148 2021-11-25 00:10:31 justinbieber ".@dr~ Twitt~
##  3 17919972   1463277431700262915 2021-11-23 22:45:00 taylorswift~ "NO P~ Twitt~
##  4 2557521    1463885213759586308 2021-11-25 15:00:07 espn         "A tr~ Sprin~
##  5 416814339  1452286044246786059 2021-10-24 14:49:09 JoelEmbiid   "Hala~ Twitt~
##  6 2176646084 1463714072122343426 2021-11-25 03:40:03 cstonehoops  "I th~ Twitt~
##  7 132981804  1463894534933340162 2021-11-25 15:37:09 KUHoops      "Than~ Twitt~
##  8 16955870   1463242685641334786 2021-11-23 20:26:56 UpshotNYT    "Budd~ Socia~
##  9 2303751216 1463620026435575809 2021-11-24 21:26:21 FiveThirtyE~ "Here~ Socia~
## 10 69133574   1463657621014163464 2021-11-24 23:55:44 hadleywickh~ "@mic~ Twitt~
## # ... with 11 more rows, and 84 more variables: display_text_width <int>,
## #   reply_to_status_id <chr>, reply_to_user_id <chr>,
## #   reply_to_screen_name <chr>, is_quote <lgl>, is_retweet <lgl>,
## #   favorite_count <int>, retweet_count <int>, quote_count <int>,
## #   reply_count <int>, hashtags <list>, symbols <list>, urls_url <list>,
## #   urls_t.co <list>, urls_expanded_url <list>, media_url <list>,
## #   media_t.co <list>, media_expanded_url <list>, media_type <list>, ...

# extract most recent tweets data from the famous tweeters
tweets_data(famous_tweeters)

## # A tibble: 21 x 68
##    user_id    status_id           created_at          screen_name  text   source
##    <chr>      <chr>               <dttm>              <chr>        <chr>  <chr> 
##  1 25365536   1463553234794991618 2021-11-24 17:00:57 KimKardashi~ "Our ~ Twitt~
##  2 27260086   1463661337851142148 2021-11-25 00:10:31 justinbieber ".@dr~ Twitt~
##  3 17919972   1463277431700262915 2021-11-23 22:45:00 taylorswift~ "NO P~ Twitt~
##  4 2557521    1463885213759586308 2021-11-25 15:00:07 espn         "A tr~ Sprin~
##  5 416814339  1452286044246786059 2021-10-24 14:49:09 JoelEmbiid   "Hala~ Twitt~
##  6 2176646084 1463714072122343426 2021-11-25 03:40:03 cstonehoops  "I th~ Twitt~
##  7 132981804  1463894534933340162 2021-11-25 15:37:09 KUHoops      "Than~ Twitt~
##  8 16955870   1463242685641334786 2021-11-23 20:26:56 UpshotNYT    "Budd~ Socia~
##  9 2303751216 1463620026435575809 2021-11-24 21:26:21 FiveThirtyE~ "Here~ Socia~
## 10 69133574   1463657621014163464 2021-11-24 23:55:44 hadleywickh~ "@mic~ Twitt~
## # ... with 11 more rows, and 62 more variables: display_text_width <int>,
## #   reply_to_status_id <chr>, reply_to_user_id <chr>,
## #   reply_to_screen_name <chr>, is_quote <lgl>, is_retweet <lgl>,
## #   favorite_count <int>, retweet_count <int>, hashtags <list>, symbols <list>,
## #   urls_url <list>, urls_t.co <list>, urls_expanded_url <list>,
## #   media_url <list>, media_t.co <list>, media_expanded_url <list>,
## #   media_type <list>, ext_media_url <list>, ext_media_t.co <list>, ...
