Handle Missing Values
…
---
class: inverse
# Drop rows with missing values with drop_na

- Drop rows without `hospitalized` data

```r
drop_na(df)
```

```
## # A tibble: 167 x 12
##    PassengerId Survived Pclass Name   Sex     Age SibSp Parch Ticket Fare  Cabin
##          <dbl>    <dbl> <chr>  <chr>  <chr> <dbl> <dbl> <dbl> <chr>  <chr> <chr>
##  1           2        1 1      Cumin~ fema~    38     1     0 PC 17~ 71.2~ C85  
##  2           4        1 1      Futre~ fema~    35     1     0 113803 53.1  C123 
##  3           7        0 1      McCar~ male     54     0     0 17463  51.8~ E46  
##  4          11        1 3      Sands~ fema~     4     1     1 PP 95~ 16.7  G6   
##  5          12        1 1      Bonne~ fema~    58     0     0 113783 26.55 C103 
##  6          22        1 2      Beesl~ male     34     0     0 248698 13    D56  
##  7          24        1 1      Slope~ male     28     0     0 113788 35.5  A6   
##  8          28        0 1      Fortu~ male     19     3     2 19950  263   C23 ~
##  9          67        1 2      Nye, ~ fema~    29     0     0 C.A. ~ 10.5  F33  
## 10          76        0 3      Moen,~ male     25     0     0 348123 7.65  F G73
## # ... with 157 more rows, and 1 more variable: Embarked <chr>
```

---
class: inverse

```r
drop_na(df, Age, Sex)
```

```
## # A tibble: 689 x 12
##    PassengerId Survived Pclass Name   Sex     Age SibSp Parch Ticket Fare  Cabin
##          <dbl>    <dbl> <chr>  <chr>  <chr> <dbl> <dbl> <dbl> <chr>  <chr> <chr>
##  1           1        0 3      Braun~ male     22     1     0 A/5 2~ 7.25  <NA> 
##  2           2        1 1      Cumin~ fema~    38     1     0 PC 17~ 71.2~ C85  
##  3           3        1 3      Heikk~ fema~    26     0     0 STON/~ 7.925 <NA> 
##  4           4        1 1      Futre~ fema~    35     1     0 113803 53.1  C123 
##  5           5        0 3      Allen~ male     35     0     0 373450 8.05  <NA> 
##  6           7        0 1      McCar~ male     54     0     0 17463  51.8~ E46  
##  7           8        0 3      Palss~ male      2     3     1 349909 21.0~ <NA> 
##  8           9        1 3      Johns~ fema~    27     0     2 347742 11.1~ <NA> 
##  9          10        1 2      Nasse~ fema~    14     1     0 237736 30.0~ <NA> 
## 10          11        1 3      Sands~ fema~     4     1     1 PP 95~ 16.7  G6   
## # ... with 679 more rows, and 1 more variable: Embarked <chr>
```

---
class: inverse
# Drop columns with missing values

```r
df %>% select(-Age, -Sex)
```

```
## # A tibble: 891 x 10
##    PassengerId Survived Pclass Name      SibSp Parch Ticket Fare  Cabin Embarked
##          <dbl>    <dbl> <chr>  <chr>     <dbl> <dbl> <chr>  <chr> <chr> <chr>   
##  1           1        0 3      Braund, ~     1     0 A/5 2~ 7.25  <NA>  S       
##  2           2        1 1      Cumings,~     1     0 PC 17~ 71.2~ C85   C       
##  3           3        1 3      Heikkine~     0     0 STON/~ 7.925 <NA>  S       
##  4           4        1 1      Futrelle~     1     0 113803 53.1  C123  S       
##  5           5        0 3      Allen, M~     0     0 373450 8.05  <NA>  S       
##  6           6        0 3      Moran, M~     0     0 330877 8.45~ <NA>  Q       
##  7           7        0 1      McCarthy~     0     0 17463  51.8~ E46   S       
##  8           8        0 3      Palsson,~     3     1 349909 21.0~ <NA>  S       
##  9           9        1 3      Johnson,~     0     2 347742 11.1~ <NA>  S       
## 10          10        1 2      Nasser, ~     1     0 237736 30.0~ <NA>  C       
## # ... with 881 more rows
```

---
class: inverse
# Fill in missing values with previous or next value

```r
df %>% fill(Age, Sex, Cabin, .direction = 'updown')
```

```
## # A tibble: 891 x 12
##    PassengerId Survived Pclass Name   Sex     Age SibSp Parch Ticket Fare  Cabin
##          <dbl>    <dbl> <chr>  <chr>  <chr> <dbl> <dbl> <dbl> <chr>  <chr> <chr>
##  1           1        0 3      Braun~ male     22     1     0 A/5 2~ 7.25  C85  
##  2           2        1 1      Cumin~ fema~    38     1     0 PC 17~ 71.2~ C85  
##  3           3        1 3      Heikk~ fema~    26     0     0 STON/~ 7.925 C123 
##  4           4        1 1      Futre~ fema~    35     1     0 113803 53.1  C123 
##  5           5        0 3      Allen~ male     35     0     0 373450 8.05  E46  
##  6           6        0 3      Moran~ male     54     0     0 330877 8.45~ E46  
##  7           7        0 1      McCar~ male     54     0     0 17463  51.8~ E46  
##  8           8        0 3      Palss~ male      2     3     1 349909 21.0~ G6   
##  9           9        1 3      Johns~ fema~    27     0     2 347742 11.1~ G6   
## 10          10        1 2      Nasse~ fema~    14     1     0 237736 30.0~ G6   
## # ... with 881 more rows, and 1 more variable: Embarked <chr>
```
…
