Animal Crossing reviews
…
user_reviews

## # A tibble: 2,999 x 4
##    grade user_name    text                                            date      
##    <dbl> <chr>        <chr>                                           <date>    
##  1     4 mds27272     My gf started playing before me. No option to ~ 2020-03-20
##  2     5 lolo2178     While the game itself is great, really relaxin~ 2020-03-20
##  3     0 Roachant     My wife and I were looking forward to playing ~ 2020-03-20
##  4     0 Houndf       We need equal values and opportunities for all~ 2020-03-20
##  5     0 ProfessorFox BEWARE!  If you have multiple people in your h~ 2020-03-20
##  6     0 tb726        The limitation of one island per Switch (not p~ 2020-03-20
##  7     0 Outryder86   I was very excited for this new installment of~ 2020-03-20
##  8     0 Subby89      It's 2020 and for some reason Nintendo has dec~ 2020-03-20
##  9     0 RocketRon    This is so annoying. Only one player has the a~ 2020-03-20
## 10     0 chankills    I purchased this game for my household (me and~ 2020-03-20
## # ... with 2,989 more rows
…
Word Frequency

reviews_parsed <- user_reviews %>%
  mutate(text = str_remove(text, "Expand$")) %>%
  mutate(rating = case_when(
    grade > 7 ~ "good",
    TRUE ~ "bad"
  ))

reviews_parsed

## # A tibble: 2,999 x 5
##    grade user_name    text                                     date       rating
##    <dbl> <chr>        <chr>                                    <date>     <chr> 
##  1     4 mds27272     "My gf started playing before me. No op~ 2020-03-20 bad   
##  2     5 lolo2178     "While the game itself is great, really~ 2020-03-20 bad   
##  3     0 Roachant     "My wife and I were looking forward to ~ 2020-03-20 bad   
##  4     0 Houndf       "We need equal values and opportunities~ 2020-03-20 bad   
##  5     0 ProfessorFox "BEWARE!  If you have multiple people i~ 2020-03-20 bad   
##  6     0 tb726        "The limitation of one island per Switc~ 2020-03-20 bad   
##  7     0 Outryder86   "I was very excited for this new instal~ 2020-03-20 bad   
##  8     0 Subby89      "It's 2020 and for some reason Nintendo~ 2020-03-20 bad   
##  9     0 RocketRon    "This is so annoying. Only one player h~ 2020-03-20 bad   
## 10     0 chankills    "I purchased this game for my household~ 2020-03-20 bad   
## # ... with 2,989 more rows

reviews_parsed %>% 
  unnest_tokens(word, text) %>% 
  anti_join(get_stopwords()) %>% 
  count(rating, word, sort = TRUE)

## Joining, by = "word"

## # A tibble: 17,050 x 3
##    rating word         n
##    <chr>  <chr>    <int>
##  1 bad    game      5943
##  2 bad    island    3048
##  3 good   game      2826
##  4 bad    one       2361
##  5 bad    play      1784
##  6 bad    switch    1757
##  7 bad    player    1630
##  8 bad    nintendo  1459
##  9 bad    can       1316
## 10 bad    per       1248
## # ... with 17,040 more rows
…
